dump.vcd
$date
	Sun Jun 30 12:44:09 2024
$end
$version
	Icarus Verilog
$end
$timescale
	1s
$end
$scope module cpu_tb $end
$scope module dut $end
$scope module u_mmu $end
$var reg 8 ! \ram[512] [7:0] $end
$upscope $end
$upscope $end
$upscope $end
$scope module cpu_tb $end
$scope module dut $end
$scope module u_mmu $end
$var reg 8 " \ram[513] [7:0] $end
$upscope $end
$upscope $end
$upscope $end
$scope module cpu_tb $end
$scope module dut $end
$scope module u_mmu $end
$var reg 8 # \ram[514] [7:0] $end
$upscope $end
$upscope $end
$upscope $end
$scope module cpu_tb $end
$scope module dut $end
$var wire 1 $ clk $end
$var wire 16 % ir [15:0] $end
$var wire 120 & data_out [119:0] $end
$var reg 3 ' cycle_count [2:0] $end
$var reg 1 ( gpu_clear $end
$var reg 1 ) gpu_draw $end
$var reg 8 * kk [7:0] $end
$var reg 4 + n_bits [3:0] $end
$var reg 12 , nnn [11:0] $end
$var reg 16 - pc [15:0] $end
$var reg 16 . pc_jump_addr [15:0] $end
$var reg 2 / pc_state [1:0] $end
$var reg 4 0 read_len [3:0] $end
$var reg 12 1 rw_addr [11:0] $end
$var reg 8 2 sp [7:0] $end
$var reg 120 3 sprite_data [119:0] $end
$var reg 4 4 state [3:0] $end
$var reg 8 5 v0 [7:0] $end
$var reg 8 6 vd [7:0] $end
$var reg 8 7 vf [7:0] $end
$var reg 16 8 vi [15:0] $end
$var reg 8 9 vs [7:0] $end
$var reg 8 : vx [7:0] $end
$var reg 8 ; vy [7:0] $end
$var reg 8 < write_data [7:0] $end
$var reg 1 = write_enable $end
$var reg 4 > x_bits [3:0] $end
$var reg 4 ? y_bits [3:0] $end
$var integer 32 @ i [31:0] $end
$scope module u_mmu $end
$var wire 1 $ clk $end
$var wire 16 A pc [15:0] $end
$var wire 4 B read_len [3:0] $end
$var wire 12 C rw_addr [11:0] $end
$var wire 8 D write_data [7:0] $end
$var wire 1 = write_enable $end
$var reg 120 E data_out [119:0] $end
$var reg 16 F ir [15:0] $end
$upscope $end
$scope task pc_prep_jump $end
$var reg 1 G addr $end
$upscope $end
$upscope $end
$upscope $end
$enddefinitions $end
#0
$dumpvars
xG
bx F
bx E
b0 D
b0 C
bz B
b1000000000 A
b10000 @
b0 ?
b0 >
0=
b0 <
b0 ;
b0 :
b0 9
b0 8
b0 7
bx 6
b0 5
b0 4
b0 3
b0 2
b0 1
b0 0
b0 /
b0 .
b1000000000 -
b0 ,
b0 +
b0 *
0)
0(
b0 '
bx &
bx %
0$
b1101011 #
b10 "
b1101010 !
$end
#1
b110101000000010 %
b110101000000010 F
b1 4
1$
#2
0$
#3
b10 4
b10 *
b1010 >
b10 +
b101000000010 ,
1$
#4
0$
#5
b11 4
b10 :
1$
#6
0$
#7
b100 4
1$
#8
0$
#9
b0 4
b1000000010 -
b1000000010 A
1$
#10
0$
#11
b1 4
b110101100001100 %
b110101100001100 F
1$
#12
0$
#13
b10 4
b0 :
b1100 *
b1011 >
b1100 +
b101100001100 ,
1$
#14
0$
#15
b11 4
b1100 :
1$
#16
0$
#17
b100 4
1$
#18
0$
#19
b0 4
b1000000100 -
b1000000100 A
1$
#20
0$
#21
b110110000111111 %
b110110000111111 F
b1 4
1$
#22
0$
#23
b10 4
b0 :
b111111 *
b11 ?
b1100 >
b1111 +
b110000111111 ,
1$
#24
0$
#25
b11 4
b111111 :
1$
#26
0$
#27
b100 4
1$
#28
0$
#29
b0 4
b1000000110 -
b1000000110 A
1$
#30
0$
#31
b1 4
b110110100001100 %
b110110100001100 F
1$
#32
0$
#33
b10 4
b0 :
b1100 *
b0 ?
b1101 >
b1100 +
b110100001100 ,
1$
#34
0$
#35
b11 4
b1100 :
1$
#36
0$
#37
b100 4
1$
#38
0$
#39
b0 4
b1000001000 -
b1000001000 A
1$
#40
0$
#41
b1010001011101010 %
b1010001011101010 F
b1 4
1$
#42
0$
#43
b10 4
b0 :
b11101010 *
b1110 ?
b10 >
b1010 +
b1011101010 ,
1$
#44
0$
#45
b11 4
b1011101010 8
1$
#46
0$
#47
b100 4
1$
#48
0$
#49
b0 4
b1000001010 -
b1000001010 A
1$
#50
0$
#51
b1 4
b1101101010110110 %
b1101101010110110 F
1$
#52
0$
#53
b10 4
b1100 ;
b10 :
b10110110 *
b1011 ?
b1010 >
b110 +
b101010110110 ,
1$
#54
0$
#55
b1 '
b1111 0
b1011101010 1
b1011101010 C
1$
#56
0$
#57
b10 '
1)
bx 3
1$
#58
0$
#59
b11 '
1$
#60
0$
#61
b11 4
0)
1$
#62
0$
#63
b100 4
1$
#64
0$
#65
b0 4
b1000001100 -
b1000001100 A
1$
#66
0$
#67
b1 4
b1101110011010110 %
b1101110011010110 F
1$
#68
0$
#69
b10 4
b0 '
b111111 :
b11010110 *
b1101 ?
b1100 >
b110011010110 ,
1$
#70
0$
#71
b1 '
1$
#72
0$
#73
b10 '
1)
1$
#74
0$
#75
b11 '
1$
#76
0$
#77
b11 4
0)
1$
#78
0$
#79
b100 4
1$
#80
0$
#81
b0 4
b1000001110 -
b1000001110 A
1$
#82
0$
#83
b1 4
b110111000000000 %
b110111000000000 F
1$
#84
0$
#85
b10 4
b0 '
b0 ;
b0 :
b0 *
b0 ?
b1110 >
b0 +
b111000000000 ,
1$
#86
0$
#87
b11 4
1$
#88
0$
#89
b100 4
1$
#90
0$
#91
b0 4
b1000010000 -
b1000010000 A
1$
#92
0$
#93
b10001011010100 %
b10001011010100 F
b1 4
1$
#94
0$
#95
b10 4
b1100 ;
b11010100 *
b1101 ?
b10 >
b100 +
b1011010100 ,
1$
#96
0$
#97
b1 '
1$
#98
0$
#99
b11 4
b10 /
b1 2
0G
1$
#100
0$
#101
b100 4
b0 /
1$
#102
0$
#103
b0 4
b1000010010 -
b1000010010 A
1$
#104
0$
#105
b110011000000011 %
b110011000000011 F
b1 4
1$
#106
0$
#107
b10 4
b0 '
b0 ;
b11 *
b0 ?
b110 >
b11 +
b11000000011 ,
1$
#108
0$
#109
b11 4
b11 :
1$
#110
0$
#111
b100 4
1$
#112
0$
#113
b0 4
b1000010100 -
b1000010100 A
1$
#114
0$
#115
b1 4
b110100000000010 %
b110100000000010 F
1$
#116
0$
#117
b10 4
b0 :
b10 *
b1000 >
b10 +
b100000000010 ,
1$
#118
0$
#119
b11 4
b10 :
1$
#120
0$
#121
b100 4
1$
#122
0$
#123
b0 4
b1000010110 -
b1000010110 A
1$
#124
0$
#125
b110000001100000 %
b110000001100000 F
b1 4
1$
#126
0$
#127
b10 4
b11 ;
b0 :
b1100000 *
b110 ?
b0 >
b0 +
b1100000 ,
1$
#128
0$
#129
b11 4
b1100000 :
1$
#130
0$
#131
b100 4
1$
#132
0$
#133
b0 4
b1000011000 -
b1000011000 A
1$
#134
0$
#135
b1 4
b1111000000010101 %
b1111000000010101 F
1$
#136
0$
#137
b10 4
b0 ;
b0 :
b10101 *
b1 ?
b101 +
b10101 ,
1$
#138
0$
#139
b11 4
b0 6
1$
#140
0$
#141
b100 4
1$
#142
0$
#143
b0 4
b1000011010 -
b1000011010 A
1$
#144
0$
#145
b1111000000000111 %
b1111000000000111 F
b1 4
1$
#146
0$
#147
b10 4
b111 *
b0 ?
b111 +
b111 ,
1$
#148
0$
#149
b11 4
1$
#150
0$
#151
b100 4
1$
#152
0$
#153
b0 4
b1000011100 -
b1000011100 A
1$
#154
0$
#155
b1 4
b11000000000000 %
b11000000000000 F
1$
#156
0$
#157
b10 4
b0 *
b0 +
b0 ,
1$
#158
0$
#159
b11 4
b1 /
1$
#160
0$
#161
b100 4
b0 /
1$
#162
0$
#163
b0 4
b1000011110 -
b1000011110 A
1$
#164
0$
#165
b1001000011010 %
b1001000011010 F
b1 4
1$
#166
0$
#167
b10 4
b11010 *
b1 ?
b10 >
b1010 +
b1000011010 ,
1$
#168
0$
#169
b11 4
b10 /
1$
#170
0$
#171
b100 4
b0 /
1$
#172
0$
#173
b0 4
b1000100000 -
b1000100000 A
1$
#174
0$
#175
b1100011100010111 %
b1100011100010111 F
b1 4
1$
#176
0$
#177
b10 4
b10111 *
b111 >
b111 +
b11100010111 ,
1$
#178
0$
#179
b11 4
b1 :
1$
#180
0$
#181
b100 4
1$
#182
0$
#183
b0 4
b1000100010 -
b1000100010 A
1$
#184
0$
#185
b1 4
b111011100001000 %
b111011100001000 F
1$
#186
0$
#187
b10 4
b1000 *
b0 ?
b1000 +
b11100001000 ,
1$
#188
0$
#189
b11 4
b1001 :
1$
#190
0$
#191
b100 4
1$
#192
0$
#193
b0 4
b1000100100 -
b1000100100 A
1$
#194
0$
#195
b110100111111111 %
b110100111111111 F
b1 4
1$
#196
0$
#197
b10 4
b0 :
b11111111 *
b1111 ?
b1001 >
b1111 +
b100111111111 ,
1$
#198
0$
#199
b11 4
b11111111 :
1$
#200
0$
#201
b100 4
1$
#202
0$
#203
b0 4
b1000100110 -
b1000100110 A
1$
#204
0$
#205
b1 4
b1010001011110000 %
b1010001011110000 F
1$
#206
0$
#207
b10 4
b0 :
b11110000 *
b10 >
b0 +
b1011110000 ,
1$
#208
0$
#209
b11 4
b1011110000 8
1$
#210
0$
#211
b100 4
1$
#212
0$
#213
b0 4
b1000101000 -
b1000101000 A
1$
#214
0$
#215
b1101011001110001 %
b1101011001110001 F
b1 4
1$
#216
0$
#217
b10 4
b1001 ;
b11 :
b1110001 *
b111 ?
b110 >
b1 +
b11001110001 ,
1$
#218
0$
#219
b1 '
b1011110000 1
b1011110000 C
1$
#220
0$
#221
b10 '
1)
1$
#222
0$
#223
b11 '
1$
#224
0$
#225
b11 4
0)
1$
#226
0$
#227
b100 4
1$
#228
0$
#229
b0 4
b1000101010 -
b1000101010 A
1$
#230
0$
#231
b1010001011101010 %
b1010001011101010 F
b1 4
1$
#232
0$
#233
b10 4
b0 '
b0 ;
b0 :
b11101010 *
b1110 ?
b10 >
b1010 +
b1011101010 ,
1$
#234
0$
#235
b11 4
b1011101010 8
1$
#236
0$
#237
b100 4
1$
#238
0$
#239
b0 4
b1000101100 -
b1000101100 A
1$
#240
0$
#241
b1 4
b1101101010110110 %
b1101101010110110 F
1$
#242
0$
#243
b10 4
b1100 ;
b10 :
b10110110 *
b1011 ?
b1010 >
b110 +
b101010110110 ,
1$
#244
0$
#245
b1 '
b1011101010 1
b1011101010 C
1$
#246
0$
#247
b10 '
1)
1$
#248
0$
#249
b11 '
1$
#250
0$
#251
b11 4
0)
1$
#252
0$
#253
b100 4
1$
#254
0$
#255
b0 4
b1000101110 -
b1000101110 A
1$
#256
0$
#257
b1 4
b1101110011010110 %
b1101110011010110 F
1$
#258
0$
#259
b10 4
b0 '
b111111 :
b11010110 *
b1101 ?
b1100 >
b110011010110 ,
1$
#260
0$
#261
b1 '
1$
#262
0$
#263
b10 '
1)
1$
#264
0$
#265
b11 '
1$
#266
0$
#267
b11 4
0)
1$
#268
0$
#269
b100 4
1$
#270
0$
#271
b0 4
b1000110000 -
b1000110000 A
1$
#272
0$
#273
b1 4
b110000000000001 %
b110000000000001 F
1$
#274
0$
#275
b10 4
b0 '
b0 ;
b0 :
b1 *
b0 ?
b0 >
b1 +
b1 ,
1$
#276
0$
#277
b11 4
b1 :
1$
#278
0$
#279
b100 4
1$
#280
0$
#281
b0 4
b1000110010 -
b1000110010 A
1$
#282
0$
#283
b1110000010100001 %
b1110000010100001 F
b1 4
1$
#284
0$
#285
b10 4
b10 ;
b0 :
b10100001 *
b1010 ?
b10100001 ,
1$
#286
0$
#287
b11 4
1$
#288
0$
#289
b100 4
1$
#290
0$
#291
b0 4
b1000110100 -
b1000110100 A
1$
#292
0$
#293
b1 4
b111101111111110 %
b111101111111110 F
1$
#294
0$
#295
b10 4
b0 ;
b1100 :
b11111110 *
b1111 ?
b1011 >
b1110 +
b101111111110 ,
1$
#296
0$
#297
b11 4
b1010 :
1$
#298
0$
#299
b100 4
1$
#300
0$
#301
b0 4
b1000110110 -
b1000110110 A
1$
#302
0$
#303
b110000000000100 %
b110000000000100 F
b1 4
1$
#304
0$
#305
b10 4
b0 :
b100 *
b0 ?
b0 >
b100 +
b100 ,
1$
#306
0$
#307
b11 4
b100 :
1$
#308
0$
#309
b100 4
1$
#310
0$
#311
b0 4
b1000111000 -
b1000111000 A
1$
#312
0$
#313
b1 4
b1110000010100001 %
b1110000010100001 F
1$
#314
0$
#315
b10 4
b10 ;
b0 :
b10100001 *
b1010 ?
b1 +
b10100001 ,
1$
#316
0$
#317
b11 4
1$
#318
0$
#319
b100 4
1$
#320
0$
#321
b0 4
b1000111010 -
b1000111010 A
1$
#322
0$
#323
b111101100000010 %
b111101100000010 F
b1 4
1$
#324
0$
#325
b10 4
b0 ;
b1010 :
b10 *
b0 ?
b1011 >
b10 +
b101100000010 ,
1$
#326
0$
#327
b11 4
b1100 :
1$
#328
0$
#329
b100 4
1$
#330
0$
#331
b0 4
b1000111100 -
b1000111100 A
1$
#332
0$
#333
b1 4
b110000000011111 %
b110000000011111 F
1$
#334
0$
#335
b10 4
b0 :
b11111 *
b1 ?
b0 >
b1111 +
b11111 ,
1$
#336
0$
#337
b11 4
b11111 :
1$
#338
0$
#339
b100 4
1$
#340
0$
#341
b0 4
b1000111110 -
b1000111110 A
1$
#342
0$
#343
b1000101100000010 %
b1000101100000010 F
b1 4
1$
#344
0$
#345
b10 4
b1100 :
b10 *
b0 ?
b1011 >
b10 +
b101100000010 ,
1$
#346
0$
#347
b11 4
b0 :
1$
#348
0$
#349
b100 4
1$
#350
0$
#351
b0 4
b1001000000 -
b1001000000 A
1$
#352
0$
#353
b1 4
b1101101010110110 %
b1101101010110110 F
1$
#354
0$
#355
b10 4
b10 :
b10110110 *
b1011 ?
b1010 >
b110 +
b101010110110 ,
1$
#356
0$
#357
b1 '
1$
#358
0$
#359
b10 '
1)
1$
#360
0$
#361
b11 '
1$
#362
0$
#363
b11 4
0)
1$
#364
0$
#365
b100 4
1$
#366
0$
#367
b0 4
b1001000010 -
b1001000010 A
1$
#368
0$
#369
b1 4
b110000000001100 %
b110000000001100 F
1$
#370
0$
#371
b10 4
b0 '
b0 :
b1100 *
b0 ?
b0 >
b1100 +
b1100 ,
1$
#372
0$
#373
b11 4
b1100 :
1$
#374
0$
#375
b100 4
1$
#376
0$
#377
b0 4
b1001000100 -
b1001000100 A
1$
#378
0$
#379
b1110000010100001 %
b1110000010100001 F
b1 4
1$
#380
0$
#381
b10 4
b10 ;
b0 :
b10100001 *
b1010 ?
b1 +
b10100001 ,
1$
#382
0$
#383
b11 4
1$
#384
0$
#385
b100 4
1$
#386
0$
#387
b0 4
b1001000110 -
b1001000110 A
1$
#388
0$
#389
b1 4
b111110111111110 %
b111110111111110 F
1$
#390
0$
#391
b10 4
b0 ;
b1100 :
b11111110 *
b1111 ?
b1101 >
b1110 +
b110111111110 ,
1$
#392
0$
#393
b11 4
b1010 :
1$
#394
0$
#395
b100 4
1$
#396
0$
#397
b0 4
b1001001000 -
b1001001000 A
1$
#398
0$
#399
b110000000001101 %
b110000000001101 F
b1 4
1$
#400
0$
#401
b10 4
b0 :
b1101 *
b0 ?
b0 >
b1101 +
b1101 ,
1$
#402
0$
#403
b11 4
b1101 :
1$
#404
0$
#405
b100 4
1$
#406
0$
#407
b0 4
b1001001010 -
b1001001010 A
1$
#408
0$
#409
b1 4
b1110000010100001 %
b1110000010100001 F
1$
#410
0$
#411
b10 4
b10 ;
b0 :
b10100001 *
b1010 ?
b1 +
b10100001 ,
1$
#412
0$
#413
b11 4
1$
#414
0$
#415
b100 4
1$
#416
0$
#417
b0 4
b1001001100 -
b1001001100 A
1$
#418
0$
#419
b111110100000010 %
b111110100000010 F
b1 4
1$
#420
0$
#421
b10 4
b0 ;
b1010 :
b10 *
b0 ?
b1101 >
b10 +
b110100000010 ,
1$
#422
0$
#423
b11 4
b1100 :
1$
#424
0$
#425
b100 4
1$
#426
0$
#427
b0 4
b1001001110 -
b1001001110 A
1$
#428
0$
#429
b1 4
b110000000011111 %
b110000000011111 F
1$
#430
0$
#431
b10 4
b0 :
b11111 *
b1 ?
b0 >
b1111 +
b11111 ,
1$
#432
0$
#433
b11 4
b11111 :
1$
#434
0$
#435
b100 4
1$
#436
0$
#437
b0 4
b1001010000 -
b1001010000 A
1$
#438
0$
#439
b1000110100000010 %
b1000110100000010 F
b1 4
1$
#440
0$
#441
b10 4
b1100 :
b10 *
b0 ?
b1101 >
b10 +
b110100000010 ,
1$
#442
0$
#443
b11 4
b0 :
1$
#444
0$
#445
b100 4
1$
#446
0$
#447
b0 4
b1001010010 -
b1001010010 A
1$
#448
0$
#449
b1 4
b1101110011010110 %
b1101110011010110 F
1$
#450
0$
#451
b10 4
b111111 :
b11010110 *
b1101 ?
b1100 >
b110 +
b110011010110 ,
1$
#452
0$
#453
b1 '
1$
#454
0$
#455
b10 '
1)
1$
#456
0$
#457
b11 '
1$
#458
0$
#459
b11 4
0)
1$
#460
0$
#461
b100 4
1$
#462
0$
#463
b0 4
b1001010100 -
b1001010100 A
1$
#464
0$
#465
b1 4
b1010001011110000 %
b1010001011110000 F
1$
#466
0$
#467
b10 4
b0 '
b0 :
b11110000 *
b1111 ?
b10 >
b0 +
b1011110000 ,
1$
#468
0$
#469
b11 4
b1011110000 8
1$
#470
0$
#471
b100 4
1$
#472
0$
#473
b0 4
b1001010110 -
b1001010110 A
1$
#474
0$
#475
b1101011001110001 %
b1101011001110001 F
b1 4
1$
#476
0$
#477
b10 4
b1001 ;
b11 :
b1110001 *
b111 ?
b110 >
b1 +
b11001110001 ,
1$
#478
0$
#479
b1 '
b1011110000 1
b1011110000 C
1$
#480
0$
#481
b10 '
1)
1$
#482
0$
#483
b11 '
1$
#484
0$
#485
b11 4
0)
1$
#486
0$
#487
b100 4
1$
#488
0$
#489
b0 4
b1001011000 -
b1001011000 A
1$
#490
0$
#491
b1000011010000100 %
b1000011010000100 F
b1 4
1$
#492
0$
#493
b10 4
b0 '
b10 ;
b10000100 *
b1000 ?
b100 +
b11010000100 ,
1$
#494
0$
#495
b11 4
b101 :
1$
#496
0$
#497
b100 4
1$
#498
0$
#499
b0 4
b1001011010 -
b1001011010 A
1$
